<?xml version="1.0" encoding="UTF-8"?>
<svg width="329px" height="180px" viewBox="0 0 329 180" version="1.1" xmlns="http://www.w3.org/2000/svg" xmlns:xlink="http://www.w3.org/1999/xlink">
    <!-- Generator: Sketch 47.1 (45422) - http://www.bohemiancoding.com/sketch -->
    <title>Page 1 Copy 8</title>
    <desc>Created with Sketch.</desc>
    <defs>
        <filter x="-7.8%" y="-12.2%" width="115.6%" height="130.9%" filterUnits="objectBoundingBox" id="filter-1">
            <feOffset dx="0" dy="5" in="SourceAlpha" result="shadowOffsetOuter1"></feOffset>
            <feGaussianBlur stdDeviation="7" in="shadowOffsetOuter1" result="shadowBlurOuter1"></feGaussianBlur>
            <feColorMatrix values="0 0 0 0 0   0 0 0 0 0   0 0 0 0 0  0 0 0 0.2 0" type="matrix" in="shadowBlurOuter1" result="shadowMatrixOuter1"></feColorMatrix>
            <feMerge>
                <feMergeNode in="shadowMatrixOuter1"></feMergeNode>
                <feMergeNode in="SourceGraphic"></feMergeNode>
            </feMerge>
        </filter>
        <rect id="path-2" x="0" y="0" width="301" height="152" rx="17"></rect>
    </defs>
    <g id="Symbols" stroke="none" stroke-width="1" fill="none" fill-rule="evenodd">
        <g id="74-dollars" transform="translate(14.000000, 9.000000)">
            <g id="Page-1-Copy-8" filter="url(#filter-1)">
                <mask id="mask-3" fill="white">
                    <use xlink:href="#path-2"></use>
                </mask>
                <use id="Mask" fill="#F493AF" xlink:href="#path-2"></use>
                <g id="Page-1-Copy-2" mask="url(#mask-3)">
                    <g transform="translate(147.500000, 76.000000) scale(-1, -1) translate(-147.500000, -76.000000) translate(8.000000, 11.000000)">
                        <path d="M80.9771143,62.7234952 C78.6836733,62.6120141 76.1120415,62.5246843 73.3808894,62.4907869 C74.5504798,61.2469258 75.6304454,60.0420917 76.583267,58.9368554 C77.2129589,58.2064146 76.2208053,57.2004341 75.5004347,57.8388859 C74.4092976,58.8058822 73.2197672,59.9021846 71.9916214,61.0896211 C71.9551138,58.8088316 71.8710959,56.6620076 71.7661262,54.7360512 C71.7125874,53.7546496 70.2873177,53.7546496 70.233779,54.7360512 C70.1286406,56.6653845 70.044454,58.8156282 70.008073,61.1006496 C68.9748168,60.1137337 67.9710701,59.1996995 67.0454816,58.3929574 C66.3258699,57.765534 65.3446348,58.7605288 65.9633238,59.4905422 C66.7581428,60.4278729 67.6581001,61.4444543 68.6302294,62.4907869 C65.894946,62.5246843 63.3194357,62.6115866 61.0229173,62.7234952 C59.6590276,62.789623 59.6590276,64.2098106 61.0229173,64.2759384 C63.3165691,64.3878898 65.8883695,64.474792 68.6197746,64.5087322 C67.4498891,65.752978 66.3697127,66.9581968 65.4167224,68.0634331 C64.7869884,68.7939167 65.779142,69.7998972 66.4995126,69.1614454 C67.5906075,68.1944064 68.7801801,67.0981467 70.0082838,65.9107101 C70.0447491,68.1914569 70.1288092,70.3378963 70.233779,72.2642373 C70.2873177,73.2452542 71.7125874,73.2452542 71.7661262,72.2642373 C71.8712645,70.3349041 71.9554511,68.1847031 71.99179,65.8996817 C73.0250884,66.8865975 74.0288351,67.8002043 74.9543814,68.6069464 C75.6740353,69.234327 76.6552704,68.239375 76.0365813,67.5097891 C75.2415937,66.572031 74.3414256,65.5554068 73.3690013,64.5087322 C76.1045798,64.474792 78.6803851,64.3878898 80.9771143,64.2759384 C82.3409619,64.2098106 82.3409619,62.789623 80.9771143,62.7234952" id="Fill-3-Copy-5" fill="#FFD6E2"></path>
                        <path d="M21.4771143,42.2234952 C19.1836733,42.1120141 16.6120415,42.0246843 13.8808894,41.9907869 C15.0504798,40.7469258 16.1304454,39.5420917 17.083267,38.4368554 C17.7129589,37.7064146 16.7208053,36.7004341 16.0004347,37.3388859 C14.9092976,38.3058822 13.7197672,39.4021846 12.4916214,40.5896211 C12.4551138,38.3088316 12.3710959,36.1620076 12.2661262,34.2360512 C12.2125874,33.2546496 10.7873177,33.2546496 10.733779,34.2360512 C10.6286406,36.1653845 10.544454,38.3156282 10.508073,40.6006496 C9.47481675,39.6137337 8.47107009,38.6996995 7.54548161,37.8929574 C6.82586987,37.265534 5.84463479,38.2605288 6.46332383,38.9905422 C7.25814279,39.9278729 8.15810011,40.9444543 9.13022938,41.9907869 C6.39494596,42.0246843 3.81943574,42.1115866 1.52291734,42.2234952 C0.159027555,42.289623 0.159027555,43.7098106 1.52291734,43.7759384 C3.81656909,43.8878898 6.38836954,43.974792 9.11977457,44.0087322 C7.94988908,45.252978 6.86971265,46.4581968 5.91672244,47.5634331 C5.28698839,48.2939167 6.27914201,49.2998972 6.99951257,48.6614454 C8.09060753,47.6944064 9.28018011,46.5981467 10.5082838,45.4107101 C10.5447491,47.6914569 10.6288092,49.8378963 10.733779,51.7642373 C10.7873177,52.7452542 12.2125874,52.7452542 12.2661262,51.7642373 C12.3712645,49.8349041 12.4554511,47.6847031 12.49179,45.3996817 C13.5250884,46.3865975 14.5288351,47.3002043 15.4543814,48.1069464 C16.1740353,48.734327 17.1552704,47.739375 16.5365813,47.0097891 C15.7415937,46.072031 14.8414256,45.0554068 13.8690013,44.0087322 C16.6045798,43.974792 19.1803851,43.8878898 21.4771143,43.7759384 C22.8409619,43.7098106 22.8409619,42.289623 21.4771143,42.2234952" id="Fill-3-Copy-6" fill="#0A3847"></path>
                        <path d="M259.880889,66.9907869 C261.05048,65.7469258 262.130445,64.5420917 263.083267,63.4368554 C263.712959,62.7064146 262.720805,61.7004341 262.000435,62.3388859 C260.909298,63.3058822 259.719767,64.4021846 258.491621,65.5896211 C258.455114,63.3088316 258.371096,61.1620076 258.266126,59.2360512 C258.212587,58.2546496 256.787318,58.2546496 256.733779,59.2360512 C256.628641,61.1653845 256.544454,63.3156282 256.508073,65.6006496 C255.474817,64.6137337 254.47107,63.6996995 253.545482,62.8929574 C252.82587,62.265534 251.844635,63.2605288 252.463324,63.9905422 C253.258143,64.9278729 254.1581,65.9444543 255.130229,66.9907869 C252.394946,67.0246843 249.819436,67.1115866 247.522917,67.2234952 C246.159028,67.289623 246.159028,68.7098106 247.522917,68.7759384 C249.816569,68.8878898 252.38837,68.974792 255.119775,69.0087322 C253.949889,70.252978 252.869713,71.4581968 251.916722,72.5634331 C251.286988,73.2939167 252.279142,74.2998972 252.999513,73.6614454 C254.090608,72.6944064 255.28018,71.5981467 256.508284,70.4107101 C256.544749,72.6914569 256.628809,74.8378963 256.733779,76.7642373 C256.787318,77.7452542 258.212587,77.7452542 258.266126,76.7642373 C258.371265,74.8349041 258.455451,72.6847031 258.49179,70.3996817 C259.525088,71.3865975 260.528835,72.3002043 261.454381,73.1069464 C262.174035,73.734327 263.15527,72.739375 262.536581,72.0097891 C261.741594,71.072031 260.841426,70.0554068 259.869001,69.0087322 C262.60458,68.974792 265.180385,68.8878898 267.477114,68.7759384 C268.840962,68.7098106 268.840962,67.289623 267.477114,67.2234952 C265.183673,67.1120141 262.612041,67.0246843 259.880889,66.9907869 Z" id="Fill-3" fill="#FFD6E2" transform="translate(257.500000, 68.000000) scale(-1, 1) translate(-257.500000, -68.000000) "></path>
                        <path d="M22.8808894,113.990787 C24.0504798,112.746926 25.1304454,111.542092 26.083267,110.436855 C26.7129589,109.706415 25.7208053,108.700434 25.0004347,109.338886 C23.9092976,110.305882 22.7197672,111.402185 21.4916214,112.589621 C21.4551138,110.308832 21.3710959,108.162008 21.2661262,106.236051 C21.2125874,105.25465 19.7873177,105.25465 19.733779,106.236051 C19.6286406,108.165384 19.544454,110.315628 19.508073,112.60065 C18.4748168,111.613734 17.4710701,110.6997 16.5454816,109.892957 C15.8258699,109.265534 14.8446348,110.260529 15.4633238,110.990542 C16.2581428,111.927873 17.1581001,112.944454 18.1302294,113.990787 C15.394946,114.024684 12.8194357,114.111587 10.5229173,114.223495 C9.15902755,114.289623 9.15902755,115.709811 10.5229173,115.775938 C12.8165691,115.88789 15.3883695,115.974792 18.1197746,116.008732 C16.9498891,117.252978 15.8697127,118.458197 14.9167224,119.563433 C14.2869884,120.293917 15.279142,121.299897 15.9995126,120.661445 C17.0906075,119.694406 18.2801801,118.598147 19.5082838,117.41071 C19.5447491,119.691457 19.6288092,121.837896 19.733779,123.764237 C19.7873177,124.745254 21.2125874,124.745254 21.2661262,123.764237 C21.3712645,121.834904 21.4554511,119.684703 21.49179,117.399682 C22.5250884,118.386598 23.5288351,119.300204 24.4543814,120.106946 C25.1740353,120.734327 26.1552704,119.739375 25.5365813,119.009789 C24.7415937,118.072031 23.8414256,117.055407 22.8690013,116.008732 C25.6045798,115.974792 28.1803851,115.88789 30.4771143,115.775938 C31.8409619,115.709811 31.8409619,114.289623 30.4771143,114.223495 C28.1836733,114.112014 25.6120415,114.024684 22.8808894,113.990787 Z" id="Fill-3-Copy" fill="#FFD6E2" transform="translate(20.500000, 115.000000) scale(-1, 1) translate(-20.500000, -115.000000) "></path>
                        <path d="M202.113013,120.163108 C202.201041,118.286625 202.269967,116.182572 202.296772,113.948047 C203.278771,114.904934 204.229921,115.78856 205.102465,116.568141 C205.67917,117.083348 206.473366,116.271577 205.96933,115.682185 C205.205897,114.789457 204.340409,113.816167 203.402898,112.811348 C205.20353,112.781489 206.898451,112.712757 208.418906,112.62683 C209.193698,112.583032 209.193698,111.416913 208.418906,111.373115 C206.895741,111.2871 205.198195,111.218192 203.394207,111.188465 C204.173387,110.343054 204.894956,109.521784 205.531896,108.764542 C206.027241,108.175722 205.241694,107.372922 204.665376,107.879113 C203.925348,108.529366 203.122806,109.265764 202.296772,110.061133 C202.269967,107.823178 202.201386,105.715915 202.113013,103.836924 C202.060824,102.721025 200.939639,102.721025 200.887407,103.836924 C200.799034,105.713584 200.730409,107.817769 200.703648,110.052602 C199.721347,109.095407 198.76981,108.211605 197.897309,107.431892 C197.320604,106.916685 196.526365,107.728412 197.030444,108.317804 C197.793834,109.210532 198.659365,110.183778 199.596834,111.188641 C197.796201,111.218456 196.101667,111.287232 194.580868,111.373115 C193.806377,111.416913 193.806377,112.583032 194.580868,112.62683 C196.104033,112.712889 197.801579,112.781753 199.605568,112.811524 C198.826345,113.656891 198.105119,114.478161 197.468222,115.235447 C196.972877,115.824223 197.758382,116.627023 198.334398,116.120876 C199.074727,115.470448 199.877312,114.733917 200.703648,113.938329 C200.730409,116.176504 200.799034,118.283942 200.887407,120.163108 C200.939639,121.278964 202.060824,121.278964 202.113013,120.163108" id="Fill-7" fill="#0A3847" transform="translate(201.500000, 112.000000) scale(-1, 1) rotate(90.000000) translate(-201.500000, -112.000000) "></path>
                        <path d="M260,23.5 C260,24.3284362 259.328426,25 258.499977,25 C257.671574,25 257,24.3284362 257,23.5 C257,22.6715638 257.671574,22 258.499977,22 C259.328426,22 260,22.6715638 260,23.5" id="Fill-11" fill="#FFD6E2"></path>
                        <path d="M172,76.5 C172,77.3284362 171.328436,78 170.499954,78 C169.671564,78 169,77.3284362 169,76.5 C169,75.67161 169.671564,75 170.499954,75 C171.328436,75 172,75.67161 172,76.5" id="Fill-13" fill="#FFD6E2"></path>
                        <path d="M279,76.4999769 C279,77.3284003 278.328426,78 277.499977,78 C276.671528,78 276,77.3284003 276,76.4999769 C276,75.6715997 276.671528,75 277.499977,75 C278.328426,75 279,75.6715997 279,76.4999769" id="Fill-17" fill="#FFD6E2"></path>
                        <path d="M158,38.4999769 C158,39.3284003 157.328426,40 156.499977,40 C155.671528,40 155,39.3284003 155,38.4999769 C155,37.6715997 155.671528,37 156.499977,37 C157.328426,37 158,37.6715997 158,38.4999769" id="Fill-17" fill="#FFD6E2"></path>
                        <path d="M198,57.4999769 C198,58.3284003 197.328426,59 196.499977,59 C195.671528,59 195,58.3284003 195,57.4999769 C195,56.6715997 195.671528,56 196.499977,56 C197.328426,56 198,56.6715997 198,57.4999769" id="Fill-17" fill="#0A3847"></path>
                        <path d="M229,78.4999769 C229,79.3284003 228.328426,80 227.499977,80 C226.671528,80 226,79.3284003 226,78.4999769 C226,77.6715997 226.671528,77 227.499977,77 C228.328426,77 229,77.6715997 229,78.4999769" id="Fill-19" fill="#FFD6E2"></path>
                        <path d="M120,112.499977 C120,113.3284 119.328426,114 118.499977,114 C117.671528,114 117,113.3284 117,112.499977 C117,111.6716 117.671528,111 118.499977,111 C119.328426,111 120,111.6716 120,112.499977" id="Fill-19-Copy-4" fill="#FFD6E2"></path>
                        <path d="M20,66.4999769 C20,67.3284003 19.3284259,68 18.4999769,68 C17.6715279,68 17,67.3284003 17,66.4999769 C17,65.6715997 17.6715279,65 18.4999769,65 C19.3284259,65 20,65.6715997 20,66.4999769" id="Fill-19-Copy-5" fill="#FFD6E2"></path>
                        <path d="M231,128.499977 C231,129.3284 230.328426,130 229.499977,130 C228.671528,130 228,129.3284 228,128.499977 C228,127.6716 228.671528,127 229.499977,127 C230.328426,127 231,127.6716 231,128.499977" id="Fill-19-Copy-3" fill="#FFD6E2"></path>
                        <path d="M144,121.499977 C144,122.3284 143.328426,123 142.499977,123 C141.671528,123 141,122.3284 141,121.499977 C141,120.6716 141.671528,120 142.499977,120 C143.328426,120 144,120.6716 144,121.499977" id="Fill-19-Copy-2" fill="#FFD6E2"></path>
                        <path d="M257,115.499977 C257,116.3284 256.328426,117 255.499977,117 C254.671528,117 254,116.3284 254,115.499977 C254,114.6716 254.671528,114 255.499977,114 C256.328426,114 257,114.6716 257,115.499977" id="Fill-19-Copy" fill="#0A3847"></path>
                        <path d="M272,1.5 C272,2.32843621 271.328436,3 270.499954,3 C269.671564,3 269,2.32843621 269,1.5 C269,0.671563791 269.671564,0 270.499954,0 C271.328436,0 272,0.671563791 272,1.5" id="Fill-21" fill="#0A3847"></path>
                        <path d="M189,20.5 C189,21.3284362 188.328426,22 187.499977,22 C186.671574,22 186,21.3284362 186,20.5 C186,19.6715638 186.671574,19 187.499977,19 C188.328426,19 189,19.6715638 189,20.5" id="Fill-23" fill="#FFD6E2"></path>
                        <path d="M132,70.4999769 C132,71.3284003 131.328426,72 130.499977,72 C129.671574,72 129,71.3284003 129,70.4999769 C129,69.6715997 129.671574,69 130.499977,69 C131.328426,69 132,69.6715997 132,70.4999769" id="Fill-25" fill="#FFD6E2"></path>
                        <path d="M17,20.5 C17,21.3284362 16.3284259,22 15.4999769,22 C14.6715279,22 14,21.3284362 14,20.5 C14,19.6715638 14.6715279,19 15.4999769,19 C16.3284259,19 17,19.6715638 17,20.5" id="Fill-27" fill="#FFD6E2"></path>
                        <path d="M119,14.5 C119,15.3284362 118.328426,16 117.499977,16 C116.671528,16 116,15.3284362 116,14.5 C116,13.6715638 116.671528,13 117.499977,13 C118.328426,13 119,13.6715638 119,14.5" id="Fill-27-Copy" fill="#FFD6E2"></path>
                        <path d="M62,11.5 C62,12.32839 61.3284259,13 60.4999769,13 C59.6715741,13 59,12.32839 59,11.5 C59,10.6715638 59.6715741,10 60.4999769,10 C61.3284259,10 62,10.6715638 62,11.5" id="Fill-35" fill="#FFD6E2"></path>
                        <path d="M14,93.5 C14,94.32839 13.3284259,95 12.4999769,95 C11.6715741,95 11,94.32839 11,93.5 C11,92.6715638 11.6715741,92 12.4999769,92 C13.3284259,92 14,92.6715638 14,93.5" id="Fill-35-Copy" fill="#0A3847"></path>
                        <path d="M85,116.5 C85,117.328436 84.3284259,118 83.4999769,118 C82.6715741,118 82,117.328436 82,116.5 C82,115.671564 82.6715741,115 83.4999769,115 C84.3284259,115 85,115.671564 85,116.5" id="Fill-23" fill="#0A3847" transform="translate(83.500000, 116.500000) scale(-1, 1) translate(-83.500000, -116.500000) "></path>
                    </g>
                </g>
                <path d="M294.227932,148.58022 C298.34116,145.477454 301,140.54923 301,135 L301,17 C301,7.61115925 293.388841,-1.72470207e-15 284,0 L17,0 L17,0 C13.1603888,7.05325134e-16 9.61808417,1.27292074 6.77206818,3.41978015 L294.227931,148.580218 Z" id="Combined-Shape" fill="#FFFFFF" opacity="0.1" mask="url(#mask-3)"></path>
                <rect id="Rectangle-12-Copy-11" stroke="#0A3847" mask="url(#mask-3)" x="4.5" y="4.5" width="292" height="143" rx="17"></rect>
            </g>
        </g>
    </g>
</svg>